{
  "root": true,
  "project": {
    "name": "World Music Textbook",
    "basePath": "/admin"
  },
  "api": {
    "projectId": "1jgzqzz1",
    "dataset": "production"
  },
  "plugins": [
    "@sanity/base",
    "@sanity/default-layout",
    "@sanity/default-login",
    "@sanity/desk-tool",
    "@sanity/production-preview"
  ],
  "env": {
    "development": {
      "plugins": [
        "@sanity/vision"
      ]
    }
  },
  "parts": [
    {
      "name": "part:@sanity/base/schema",
      "path": "./schemas/schema"
    },
    {
      "implements": "part:@sanity/production-preview/resolve-production-url",
      "path": "./resolveProductionUrl.js"
    }
  ]
}